ERROR2012-10-24 10:46:03,890 Method : PostReply            - Bad Request : Name=null
ERROR2012-10-24 10:46:03,901 Method : PostReply            - Bad Request : Conten=null
ERROR2012-11-01 18:29:10,461 Method : PutArticle           - Bad Request : Topic=null
ERROR2012-11-01 18:29:10,501 Method : PutArticle           - Bad Request : Content=null
ERROR2012-11-01 18:29:10,752 Method : PutArticle           - Bad Request : Topic=null
ERROR2012-11-01 18:29:10,753 Method : PutArticle           - Bad Request : Content=null
ERROR2012-11-01 18:29:45,375 Method : PutArticle           - Bad Request : Topic=null
ERROR2012-11-01 18:29:45,414 Method : PutArticle           - Bad Request : Content=null
ERROR2012-11-01 18:30:23,813 Method : PutArticle           - Bad Request : Topic=null
ERROR2012-11-01 18:30:23,848 Method : PutArticle           - Bad Request : Content=null
ERROR2012-11-01 18:30:25,290 Method : PutArticle           - Bad Request : Topic=null
ERROR2012-11-01 18:30:25,290 Method : PutArticle           - Bad Request : Content=null
